{
  "name": "tester",
  "$schema": "../../node_modules/nx/schemas/project-schema.json",
  "projectType": "application",
  "sourceRoot": "apps/tester/src",
  "prefix": "ngx-autosize-input",
  "targets": {
    "build": {
      "executor": "@angular-devkit/build-angular:browser",
      "outputs": ["{options.outputPath}"],
      "options": {
        "outputPath": "dist/apps/tester",
        "index": "apps/tester/src/index.html",
        "main": "apps/tester/src/main.ts",
        "polyfills": ["zone.js"],
        "tsConfig": "apps/tester/tsconfig.app.json",
        "inlineStyleLanguage": "scss",
        "assets": ["apps/tester/src/favicon.ico", "apps/tester/src/assets"],
        "styles": ["apps/tester/src/styles.scss"],
        "scripts": []
      },
      "configurations": {
        "production": {
          "budgets": [
            {
              "type": "initial",
              "maximumWarning": "500kb",
              "maximumError": "1mb"
            },
            {
              "type": "anyComponentStyle",
              "maximumWarning": "2kb",
              "maximumError": "4kb"
            }
          ],
          "outputHashing": "all"
        },
        "development": {
          "buildOptimizer": false,
          "optimization": false,
          "vendorChunk": true,
          "extractLicenses": false,
          "sourceMap": true,
          "namedChunks": true
        }
      },
      "defaultConfiguration": "production"
    },
    "serve": {
      "executor": "@angular-devkit/build-angular:dev-server",
      "configurations": {
        "production": {
          "browserTarget": "tester:build:production"
        },
        "development": {
          "browserTarget": "tester:build:development"
        }
      },
      "defaultConfiguration": "development"
    },
    "extract-i18n": {
      "executor": "@angular-devkit/build-angular:extract-i18n",
      "options": {
        "browserTarget": "tester:build"
      }
    },
    "lint": {
      "executor": "@nrwl/linter:eslint",
      "outputs": ["{options.outputFile}"],
      "options": {
        "lintFilePatterns": ["apps/tester/**/*.ts", "apps/tester/**/*.html"]
      }
    },
    "test": {
      "executor": "@nrwl/jest:jest",
      "outputs": ["{workspaceRoot}/coverage/{projectRoot}"],
      "options": {
        "jestConfig": "apps/tester/jest.config.ts",
        "passWithNoTests": true
      }
    }
  },
  "tags": []
}
